{
  "reports": [
    {
      "name": "Будь Здоров!",
      "id": "bf92023e-6935-4596-9471-3d48539f828c",
      "show_ratings": true,
      "show_reviews": true,
      "reports": {
        "invalid": 132,
        "valid": 198,
        "not_found": 246,
        "unsupported_region": 23,
        "count": 599
      },
      "reviews": {
        "rating": 3.9,
        "count": 1446,
        "avg_rating": 4,
        "count_sources": 5,
        "count_without_text": 5,
        "sample_reviews": [
          {
            "date": "2021-02-01",
            "text": "Очень уютное и вкусное место, порции просто огромные, по разумной цене. Всем рекомендую. Обслуживание, кстати, тоже не хромает, лучше чем во многих \"пафосных\" заведениях. Так держать ребята. Первый раз была, когда только открылись, посчастливилось попробовать осетинский пирог приготовленный хозяином, все на моих глазах, никаких полуфабрикатов. Вот прошло уже много лет и опять заглянула, никакого разочарования, буду заходить.",
            "source": "Yandex",
            "link": "https://yandex.by/maps/org/dom_papochki/1314389670/reviews/?",
            "rating": 3
          },
          {
            "date": "2021-02-01",
            "text": "Visiting Minsk for work. Stayed at the Doubletree for two weeks. Good, not great. The gym is small but functional. Glad they have one.  The room is a decent size and the curtains are great at blocking it the light which I like. The mini fridge is well stocked but the prices are crazy given that all the items are available downstairs for half the price. Only instant coffee but that seems to be the way to go over here so that is okay. But I asked for more one day and they didn't give me any more. I liked the bathroom and the towels and bathrobes. Heated mirror and large shower are nice to haves. The location is good. Attached to a mall and close to a bunch of tourist attractions, shopping and some good local food joints.",
            "source": "Google",
            "link": "https://www.google.com/maps/place/DoubleTree+by+Hilton+Hotel+Minsk/@53.9048227,27.5397791,14.23z/data=!4m20!1m9!2m8!1sHotels!3m6!1sHotels!2sMinsk,+Belarus!3s0x46dbcfd35b1e6ad3:0xb61b853ddb570d9!4m2!1d27.558972!2d53.9006011!3m9!1s0x46dbcf92d24cbde7:0x2ab9645fc2bbbb03!5m2!4m1!1i2!8m2!3d53.9081389!4d27.5481081!9m1!1b1",
            "rating": 2
          }
        ]
      },
      "lost audience": 100000,
      "listing_health": {
        "address": true,
        "coordinates": false,
        "schedule": true,
        "phone_number": true,
        "social_network": false,
        "categories": true,
        "rating": false,
        "synchronization": true,
        "name": false,
        "website": true
      },
      "competitor": {
        "cover": "https://encrypted-tbn0.gstatic.com/images?q=tbn:ANd9GcSXeu3hNLHvVZnOhzx4c56ohrDQ6bSfQe6QCg&usqp=CAU",
        "rating": 4.8,
        "name": "Дайкон-суши",
        "category": "ресторан",
        "logo": "https://kuramen.ru/wp-content/uploads/2020/06/KU_Logo_1_Black.png",
        "price": [
          {
            "name": "Салат в ореховом соусе",
            "price": "124"
          },
          {
            "name": "Сырный",
            "price": "200"
          },
          {
            "name": "Цезарь",
            "price": "200"
          }
        ],
        "count_reviews": 45,
        "photo_list": [
          "https://img.championat.com/s/735x490/news/big/w/q/pochemu-sushi-vredny-dlja-figury_1590677088981164064.jpg",
          "https://pickledplum.com/wp-content/uploads/2020/05/maki-sushi-1.jpg",
          "https://img.buzzfeed.com/thumbnailer-prod-us-east-1/video-api/assets/175796.jpg",
          "https://cdn2.lamag.com/wp-content/uploads/sites/6/2020/11/sushi-Echigo-Sushi-Omakase.jpg"
        ],
        "address": "Большая, 134/1",
        "address_city": "Ленинский район, Новосибирск, 630032",
        "schedule": "Сегодня с 08:00 до 20:00",
        "open_status": "Открыто",
        "phones": [
          "+7 954 224 34 45",
          "+7 954 224 34 46"
        ],
        "website": "www.daijon.ru",
        "social_network": [
          "https://www.instagram.com/daykon_sushi_nsk/",
          "https://vk.com/club80425716"
        ]
      },
      "error_statistic": {
        "name": 0,
        "phones": 105,
        "working_hours": 58,
        "website": 0,
        "formatted_address": 51
      },
      "providers": [
        {
          "provider": {
            "id": 11,
            "name": "Google My Business",
            "description": "Google My Business –  сервис компании Google, который объединяет сервисы, предоставляющие возможность размещать всю необходимую информацию о вашей компании и контролировать ее.  Наиболее важное преимущество – расширенная выдача карточки компании, при брендовом запросе, что помогает продвигать компанию в результатах поиска.",
            "logo": "https://assets.rocketdata.io/media/images/company/catalog/logo/10.png",
            "weight": -185
          },
          "chained": [
            {
              "id": 82,
              "name": "Google Assistant",
              "description": "",
              "logo": "https://assets.rocketdata.io/media/images/company/catalog/logo/11.png",
              "weight": 0
            },
            {
              "id": 60,
              "name": "Google maps",
              "description": "Google maps -   самые популярные карты для мобильных телефонов в мире. Количество скачиваний только приложения в Play Market - более 1 миллиарда.",
              "logo": "https://assets.rocketdata.io/media/images/company/catalog/logo/12_L3jXQzV.png",
              "weight": -200
            },
            {
              "id": 47,
              "name": "Waze",
              "description": "Waze - навигационное приложение для мобильных устройств, позволяющее отслеживать ситуацию на дорогах в режиме реального времени, прокладывать оптимальные маршруты, узнавать о расположении компаний. Аудитория сервиса превышает 100 миллионов пользователей.",
              "logo": "https://assets.rocketdata.io/media/images/company/catalog/logo/22.png",
              "weight": -182
            }
          ],
          "statistic": {
            "incorrect": 41,
            "correct": 6,
            "not_found": 53,
            "unsupported_region_count": 0,
            "reviews_count": 86,
            "rating": 3
          }
        },
        {
          "provider": {
            "id": 34,
            "name": "HERE maps",
            "description": "HERE maps- высокоточные карты, которые используются на 1 миллиарде устройств по всему миру, в том числе в навигационных устройствах автомобилей.",
            "logo": "https://assets.rocketdata.io/media/images/company/catalog/logo/14.png",
            "weight": -185
          },
          "chained": [],
          "statistic": {
            "incorrect": 8,
            "correct": 11,
            "not_found": 81,
            "unsupported_region_count": 0,
            "reviews_count": 0,
            "rating": 0
          }
        },
        {
          "provider": {
            "id": 26,
            "name": "OpenStreetMap",
            "description": "OpenStreetMap  - открытые карты, которыми пользуются более ста миллионов пользователей.  Сервис предоставляет  картографические данные для тысяч сайтов, мобильных приложений и устройств.",
            "logo": "https://assets.rocketdata.io/media/images/company/catalog/logo/18.png",
            "weight": -186
          },
          "chained": [
            {
              "id": 59,
              "name": "CityMaps2Go",
              "description": "Сitymaps2go -  популярное оффлайн тревел-приложение для телефона, с аудиторией более 1 миллиона пользователей.",
              "logo": "https://assets.rocketdata.io/media/images/company/catalog/logo/citymaps2go.png",
              "weight": -90
            },
            {
              "id": 58,
              "name": "Sygic travel",
              "description": "Бесплатная автономная GPS-навигация и карта для Android с аудиторией более 3 миллионов пользователей.",
              "logo": "https://assets.rocketdata.io/media/images/company/catalog/logo/29.png",
              "weight": -91
            },
            {
              "id": 56,
              "name": "Maps.me",
              "description": "Maps.me - популярное мобильное приложение - картографический сервис, использующий открытые данные. Аудитория сервиса - более 70 миллионов пользователей.",
              "logo": "https://assets.rocketdata.io/media/images/company/catalog/logo/2_BPDBQCL.png",
              "weight": -181
            },
            {
              "id": 57,
              "name": "Osmand",
              "description": "Osmand - популярное приложение GPS навигации и карт,  с  более чем 5 миллионной аудиторией пользователей.",
              "logo": "https://assets.rocketdata.io/media/images/company/catalog/logo/osmand.png",
              "weight": -95
            }
          ],
          "statistic": {
            "incorrect": 23,
            "correct": 0,
            "not_found": 77,
            "unsupported_region_count": 0,
            "reviews_count": 0,
            "rating": 0
          }
        },
        {
          "provider": {
            "id": 2,
            "name": "2gis",
            "description": "2gis - популярный в России справочник компаний, известный своей точностью данных. Аудитория сервиса превышает 44 миллиона пользователей в месяц.",
            "logo": "https://assets.rocketdata.io/media/images/company/catalog/logo/4.png",
            "weight": -194
          },
          "chained": [],
          "statistic": {
            "incorrect": 28,
            "correct": 44,
            "not_found": 5,
            "unsupported_region_count": 23,
            "reviews_count": 20,
            "rating": 4
          }
        },
        {
          "provider": {
            "id": 12,
            "name": "Yandex Карты",
            "description": "Яндекс.Карты — поисково-информационный картографический сервис, который очень популярен в России. Аудитория сервиса составляет более 46 миллионов пользователей.",
            "logo": "https://assets.rocketdata.io/media/images/company/catalog/logo/25.png",
            "weight": -199
          },
          "chained": [
            {
              "id": 71,
              "name": "Uber",
              "description": "",
              "logo": "https://assets.rocketdata.io/media/images/company/catalog/logo/21.png",
              "weight": -93
            },
            {
              "id": 53,
              "name": "Яндекс Навигатор",
              "description": "Яндекс.Навигатор - один из самых популярных приложений для телефонов в России. Им пользуется более 50 миллионов пользователей.",
              "logo": "https://assets.rocketdata.io/media/images/company/catalog/logo/1_GtCylHI.png",
              "weight": -193
            },
            {
              "id": 80,
              "name": "Яндекс Go",
              "description": "",
              "logo": "https://assets.rocketdata.io/media/images/company/catalog/logo/24_1.png",
              "weight": 0
            }
          ],
          "statistic": {
            "incorrect": 9,
            "correct": 90,
            "not_found": 1,
            "unsupported_region_count": 0,
            "reviews_count": 1340,
            "rating": 4.2
          }
        },
        {
          "provider": {
            "id": 30,
            "name": "TomTom",
            "description": "Tomtom -  одна из крупнейших навигационных систем в мире, карты которой покрывают более 135 стран и 4 миллиарда человек.",
            "logo": "https://assets.rocketdata.io/media/images/company/catalog/logo/20.png",
            "weight": -94
          },
          "chained": [],
          "statistic": {
            "incorrect": 23,
            "correct": 47,
            "not_found": 29,
            "unsupported_region_count": 0,
            "reviews_count": 0,
            "rating": 0
          }
        }
      ]
    },
    {
      "name": "Не Будь Здоров!",
      "id": "bf92023e-6935-4596-9471-3d48539f829c",
      "show_ratings": true,
      "show_reviews": true,
      "reports": {
        "invalid": 132,
        "valid": 198,
        "not_found": 246,
        "unsupported_region": 23,
        "count": 599
      },
      "reviews": {
        "rating": 3.9,
        "count": 1446,
        "avg_rating": 4,
        "count_sources": 5,
        "count_without_text": 5,
        "sample_reviews": [
          {
            "date": "2021-02-01",
            "text": "Очень уютное и вкусное место, порции просто огромные, по разумной цене. Всем рекомендую. Обслуживание, кстати, тоже не хромает, лучше чем во многих \"пафосных\" заведениях. Так держать ребята. Первый раз была, когда только открылись, посчастливилось попробовать осетинский пирог приготовленный хозяином, все на моих глазах, никаких полуфабрикатов. Вот прошло уже много лет и опять заглянула, никакого разочарования, буду заходить.",
            "source": "Yandex",
            "link": "https://yandex.by/maps/org/dom_papochki/1314389670/reviews/?",
            "rating": 3
          },
          {
            "date": "2021-02-01",
            "text": "Visiting Minsk for work. Stayed at the Doubletree for two weeks. Good, not great. The gym is small but functional. Glad they have one.  The room is a decent size and the curtains are great at blocking it the light which I like. The mini fridge is well stocked but the prices are crazy given that all the items are available downstairs for half the price. Only instant coffee but that seems to be the way to go over here so that is okay. But I asked for more one day and they didn't give me any more. I liked the bathroom and the towels and bathrobes. Heated mirror and large shower are nice to haves. The location is good. Attached to a mall and close to a bunch of tourist attractions, shopping and some good local food joints.",
            "source": "Google",
            "link": "https://www.google.com/maps/place/DoubleTree+by+Hilton+Hotel+Minsk/@53.9048227,27.5397791,14.23z/data=!4m20!1m9!2m8!1sHotels!3m6!1sHotels!2sMinsk,+Belarus!3s0x46dbcfd35b1e6ad3:0xb61b853ddb570d9!4m2!1d27.558972!2d53.9006011!3m9!1s0x46dbcf92d24cbde7:0x2ab9645fc2bbbb03!5m2!4m1!1i2!8m2!3d53.9081389!4d27.5481081!9m1!1b1",
            "rating": 2
          }
        ]
      },
      "lost audience": 100000,
      "listing_health": {
        "address": true,
        "coordinates": false,
        "schedule": true,
        "phone_number": true,
        "social_network": false,
        "categories": true,
        "rating": false,
        "synchronization": true,
        "name": false,
        "website": true
      },
      "competitor": {
        "cover": "https://encrypted-tbn0.gstatic.com/images?q=tbn:ANd9GcSXeu3hNLHvVZnOhzx4c56ohrDQ6bSfQe6QCg&usqp=CAU",
        "rating": 4.8,
        "name": "Дайкон-суши",
        "category": "ресторан",
        "logo": "https://kuramen.ru/wp-content/uploads/2020/06/KU_Logo_1_Black.png",
        "price": [
          {
            "name": "Салат в ореховом соусе",
            "price": "124"
          },
          {
            "name": "Сырный",
            "price": "200"
          },
          {
            "name": "Цезарь",
            "price": "200"
          }
        ],
        "count_reviews": 45,
        "photo_list": [
          "https://img.championat.com/s/735x490/news/big/w/q/pochemu-sushi-vredny-dlja-figury_1590677088981164064.jpg",
          "https://pickledplum.com/wp-content/uploads/2020/05/maki-sushi-1.jpg",
          "https://img.buzzfeed.com/thumbnailer-prod-us-east-1/video-api/assets/175796.jpg",
          "https://cdn2.lamag.com/wp-content/uploads/sites/6/2020/11/sushi-Echigo-Sushi-Omakase.jpg"
        ],
        "address": "Большая, 134/1",
        "address_city": "Ленинский район, Новосибирск, 630032",
        "schedule": "Сегодня с 08:00 до 20:00",
        "open_status": "Открыто",
        "phones": [
          "+7 954 224 34 45",
          "+7 954 224 34 46"
        ],
        "website": "www.daijon.ru",
        "social_network": [
          "https://www.instagram.com/daykon_sushi_nsk/",
          "https://vk.com/club80425716"
        ]
      },
      "error_statistic": {
        "name": 0,
        "phones": 105,
        "working_hours": 58,
        "website": 0,
        "formatted_address": 51
      }
    }
  ],
  "providers":[
    {
      "count": 100,
      "page": 1,
      "id": 11,
      "pages": 10,
      "reportId": "bf92023e-6935-4596-9471-3d48539f828c",
      "page_size": 10,
      "next": "/v1/brand_report/bf92023e-6935-4596-9471-3d48539f828c/11/?page=2",
      "previous": null,
      "results": [
        {
          "id": 4807289,
          "origin": {
            "name": "Будь Здоров",
            "working_hours": {
              "1": [
                "09:00-21:00"
              ],
              "2": [
                "09:00-21:00"
              ],
              "3": [
                "09:00-21:00"
              ],
              "4": [
                "09:00-21:00"
              ],
              "5": [
                "09:00-21:00"
              ],
              "6": [
                "09:00-21:00"
              ],
              "7": [
                "09:00-21:00"
              ]
            },
            "adds": "Наро-Фоминск, улица Новикова, 47",
            "phones": [
              "+7 495 788-70-30",
              "+7 495 231-16-97"
            ]
          },
          "new": {
            "name": "",
            "working_hours": null,
            "adds": "",
            "phones": []
          },
          "url": "",
          "reviews": 0,
          "rating": null,
          "errors": [
            "not found"
          ]
        },
        {
          "id": 4807295,
          "origin": {
            "name": "Будь Здоров",
            "working_hours": {
              "1": [
                "09:00-21:00"
              ],
              "2": [
                "09:00-21:00"
              ],
              "3": [
                "09:00-21:00"
              ],
              "4": [
                "09:00-21:00"
              ],
              "5": [
                "09:00-21:00"
              ],
              "6": [
                "09:00-21:00"
              ],
              "7": [
                "09:00-21:00"
              ]
            },
            "adds": "Истра, 9 Гвардейской Дивизии, 53",
            "phones": [
              "+7 495 788-70-30",
              "+7 495 231-16-97"
            ]
          },
          "new": {
            "name": "",
            "working_hours": null,
            "adds": "",
            "phones": []
          },
          "url": "",
          "reviews": 0,
          "rating": null,
          "errors": [
            "not found"
          ]
        },
        {
          "id": 4807301,
          "origin": {
            "name": "Будь Здоров",
            "working_hours": {
              "1": [
                "09:00-21:00"
              ],
              "2": [
                "09:00-21:00"
              ],
              "3": [
                "09:00-21:00"
              ],
              "4": [
                "09:00-21:00"
              ],
              "5": [
                "09:00-21:00"
              ],
              "6": [
                "09:00-21:00"
              ],
              "7": [
                "09:00-21:00"
              ]
            },
            "adds": "Электросталь, Победы, 11 к1",
            "phones": [
              "+7 495 788-70-30",
              "+7 384 403-00-00",
              "+7 495 231-16-97"
            ]
          },
          "new": {
            "name": "Будь Здоров!",
            "working_hours": {},
            "adds": "Электросталь, Победы, 11 к1",
            "phones": [
              ""
            ]
          },
          "url": "https://maps.google.com/?cid=16693445871569731377",
          "reviews": 3,
          "rating": 2.7,
          "errors": [
            "phones",
            "working_hours"
          ]
        },
        {
          "id": 4807305,
          "origin": {
            "name": "Будь Здоров",
            "working_hours": {
              "1": [
                "08:00-21:00"
              ],
              "2": [
                "08:00-21:00"
              ],
              "3": [
                "08:00-21:00"
              ],
              "4": [
                "08:00-21:00"
              ],
              "5": [
                "08:00-21:00"
              ],
              "6": [
                "08:00-20:00"
              ],
              "7": [
                "08:00-20:00"
              ]
            },
            "adds": "Электрогорск, Чкалова, 12",
            "phones": [
              "+7 495 788-70-30",
              "+7 495 231-16-97"
            ]
          },
          "new": {
            "name": "",
            "working_hours": null,
            "adds": "",
            "phones": []
          },
          "url": "",
          "reviews": 0,
          "rating": null,
          "errors": [
            "not found"
          ]
        },
        {
          "id": 4807308,
          "origin": {
            "name": "Будь Здоров",
            "working_hours": {
              "1": [
                "09:00-21:00"
              ],
              "2": [
                "09:00-21:00"
              ],
              "3": [
                "09:00-21:00"
              ],
              "4": [
                "09:00-21:00"
              ],
              "5": [
                "09:00-21:00"
              ],
              "6": [
                "09:00-21:00"
              ],
              "7": [
                "09:00-21:00"
              ]
            },
            "adds": "Щёлково, Талсинская, 6Б",
            "phones": [
              "+7 495 788-70-30",
              "+7 495 231-16-97"
            ]
          },
          "new": {
            "name": "Будь здоров",
            "working_hours": {},
            "adds": "Щёлково",
            "phones": [
              ""
            ]
          },
          "url": "https://maps.google.com/?cid=16115970143458038945",
          "reviews": 0,
          "rating": null,
          "errors": [
            "phones",
            "working_hours",
            "formatted_address"
          ]
        },
        {
          "id": 4807311,
          "origin": {
            "name": "Будь Здоров",
            "working_hours": {
              "1": [
                "08:00-21:00"
              ],
              "2": [
                "08:00-21:00"
              ],
              "3": [
                "08:00-21:00"
              ],
              "4": [
                "08:00-21:00"
              ],
              "5": [
                "08:00-21:00"
              ],
              "6": [
                "09:00-21:00"
              ],
              "7": [
                "09:00-21:00"
              ]
            },
            "adds": "Щёлково, Комсомольская, 3",
            "phones": [
              "+7 495 788-70-30",
              "+7 495 231-16-97"
            ]
          },
          "new": {
            "name": "Будь Здоров!",
            "working_hours": {
              "1": [
                "08:00-21:00"
              ],
              "2": [
                "08:00-21:00"
              ],
              "3": [
                "08:00-21:00"
              ],
              "4": [
                "08:00-21:00"
              ],
              "5": [
                "08:00-21:00"
              ],
              "6": [
                "09:00-21:00"
              ],
              "7": [
                "09:00-21:00"
              ]
            },
            "adds": "Щёлково, Комсомольская, 3",
            "phones": [
              "+7 495 231-16-97"
            ]
          },
          "url": "https://maps.google.com/?cid=13430525783497014491",
          "reviews": 1,
          "rating": 5,
          "errors": []
        },
        {
          "id": 4807314,
          "origin": {
            "name": "Будь Здоров",
            "working_hours": {
              "1": [
                "08:00-22:00"
              ],
              "2": [
                "08:00-22:00"
              ],
              "3": [
                "08:00-22:00"
              ],
              "4": [
                "08:00-22:00"
              ],
              "5": [
                "08:00-22:00"
              ],
              "6": [
                "09:00-21:00"
              ],
              "7": [
                "09:00-21:00"
              ]
            },
            "adds": "Щёлково, проспект 60 лет Октября, 2в",
            "phones": [
              "+7 495 788-70-30",
              "+7 495 231-16-97"
            ]
          },
          "new": {
            "name": "",
            "working_hours": null,
            "adds": "",
            "phones": []
          },
          "url": "",
          "reviews": 0,
          "rating": null,
          "errors": [
            "not found"
          ]
        },
        {
          "id": 4807317,
          "origin": {
            "name": "Будь Здоров",
            "working_hours": {
              "1": [
                "08:00-21:00"
              ],
              "2": [
                "08:00-21:00"
              ],
              "3": [
                "08:00-21:00"
              ],
              "4": [
                "08:00-21:00"
              ],
              "5": [
                "08:00-21:00"
              ],
              "6": [
                "09:00-21:00"
              ],
              "7": [
                "09:00-21:00"
              ]
            },
            "adds": "Щёлково, проспект 60 лет Октября, 10",
            "phones": [
              "+7 495 788-70-30",
              "+7 495 231-16-97"
            ]
          },
          "new": {
            "name": "",
            "working_hours": null,
            "adds": "",
            "phones": []
          },
          "url": "",
          "reviews": 0,
          "rating": null,
          "errors": [
            "not found"
          ]
        },
        {
          "id": 4807320,
          "origin": {
            "name": "Будь Здоров",
            "working_hours": {
              "1": [
                "08:00-20:00"
              ],
              "2": [
                "08:00-20:00"
              ],
              "3": [
                "08:00-20:00"
              ],
              "4": [
                "08:00-20:00"
              ],
              "5": [
                "08:00-20:00"
              ],
              "6": [
                "08:00-20:00"
              ],
              "7": [
                "08:00-20:00"
              ]
            },
            "adds": "Черноголовка, Лесная, 9",
            "phones": [
              "+7 495 788-70-30",
              "+7 496 524-90-01",
              "+7 383 778-51-00"
            ]
          },
          "new": {
            "name": "Будь Здоров!",
            "working_hours": {
              "1": [
                "08:00-19:00"
              ],
              "2": [
                "08:00-19:00"
              ],
              "3": [
                "08:00-19:00"
              ],
              "4": [
                "08:00-19:00"
              ],
              "5": [
                "08:00-19:00"
              ],
              "6": [
                "08:00-17:00"
              ],
              "7": [
                "08:00-15:00"
              ]
            },
            "adds": "Черноголовка, Лесная, 9",
            "phones": [
              ""
            ]
          },
          "url": "https://maps.google.com/?cid=7930486855593763949",
          "reviews": 2,
          "rating": 3,
          "errors": [
            "phones",
            "working_hours"
          ]
        },
        {
          "id": 4807328,
          "origin": {
            "name": "Будь Здоров",
            "working_hours": {
              "1": [
                "08:00-21:00"
              ],
              "2": [
                "08:00-21:00"
              ],
              "3": [
                "08:00-21:00"
              ],
              "4": [
                "08:00-21:00"
              ],
              "5": [
                "08:00-21:00"
              ],
              "6": [
                "09:00-20:00"
              ],
              "7": [
                "09:00-20:00"
              ]
            },
            "adds": "Черноголовка, Институтский проспект, 5г",
            "phones": [
              "+7 383 766-31-00",
              "+7 495 788-70-30",
              "+7 495 231-16-97"
            ]
          },
          "new": {
            "name": "",
            "working_hours": null,
            "adds": "",
            "phones": []
          },
          "url": "",
          "reviews": 0,
          "rating": null,
          "errors": [
            "not found"
          ]
        }
      ]
    }
  ]
}